{
  "current": {
    "sProduto": "",
    "styles_version": "3",
    "stylesBody_version": "3",
    "product_version": "3",
    "others_version": "3",
    "checkout_version": "3",
    "body_min_version": "3",
    "head_min_version": "3",
    "cart_min_version": "3",
    "payment_min_version": "3",
    "guest_min_version": "3",
    "header_info_display": "",
    "product_min_version": "3",
    "cart_version": "3",
    "listagens_version": "3",
    "onePageCheckout_version": "3",
    "default_version": "3",
    "collection_01": "2",
    "collection_02": "1",
    "collection_03": "1"
  }
}