<?xml version="1.0" encoding="utf-8"?>
<!-- Generator: Adobe Illustrator 16.0.0, SVG Export Plug-In . SVG Version: 6.00 Build 0)  -->
<!DOCTYPE svg PUBLIC "-//W3C//DTD SVG 1.1//EN" "http://www.w3.org/Graphics/SVG/1.1/DTD/svg11.dtd">
<svg version="1.1" id="Capa_1" xmlns="http://www.w3.org/2000/svg" xmlns:xlink="http://www.w3.org/1999/xlink" x="0px" y="0px"
	 width="260.788px" height="170.079px" viewBox="0 0 260.788 170.079" enable-background="new 0 0 260.788 170.079"
	 xml:space="preserve">
<rect fill="#FFFFFF" width="260.788" height="170.079"/>
<g>
	<g>
		<path fill="#003782" d="M177.016,47.416c0-16.751-20.814-30.407-46.489-30.407S84.04,30.664,84.04,47.416
			c0,0.432-0.006,1.626-0.006,1.78c0,17.772,18.192,32.164,46.488,32.164c28.468,0,46.494-14.39,46.494-32.161
			C177.016,48.577,177.016,48.22,177.016,47.416z"/>
		<ellipse fill="#009BDB" cx="130.536" cy="47.399" rx="44.7" ry="28.596"/>
		<g>
			<path fill="#FFFFFF" d="M115.693,38.378c-0.023,0.045-0.468,0.506-0.18,0.877c0.705,0.901,2.885,1.417,5.088,0.924
				c1.312-0.295,2.993-1.633,4.622-2.925c1.766-1.402,3.517-2.807,5.276-3.365c1.864-0.594,3.06-0.339,3.848-0.101
				c0.866,0.259,1.885,0.828,3.509,2.047c3.059,2.299,15.356,13.034,17.481,14.89c1.711-0.772,9.316-4.047,19.653-6.325
				c-0.897-5.511-4.25-10.553-9.333-14.68c-7.086,2.976-15.743,4.528-24.211,0.393c-0.044-0.018-4.625-2.187-9.146-2.08
				c-6.718,0.156-9.628,3.063-12.707,6.141L115.693,38.378z"/>
			<path fill="#FFFFFF" d="M154.837,51.893c-0.144-0.128-14.461-12.655-17.704-15.093c-1.877-1.408-2.92-1.767-4.017-1.906
				c-0.57-0.074-1.359,0.031-1.91,0.183c-1.509,0.411-3.482,1.729-5.234,3.119c-1.813,1.444-3.523,2.805-5.109,3.16
				c-2.027,0.455-4.503-0.082-5.633-0.846c-0.457-0.308-0.78-0.663-0.935-1.024c-0.416-0.967,0.354-1.741,0.479-1.871l3.95-4.274
				c0.459-0.457,0.922-0.917,1.396-1.368c-1.274,0.167-2.452,0.492-3.601,0.811c-1.431,0.402-2.809,0.786-4.201,0.784
				c-0.582,0-3.697-0.51-4.288-0.67c-3.576-0.979-6.714-1.931-11.401-4.12c-5.616,4.181-9.372,9.409-10.457,15.167
				c0.806,0.214,2.106,0.601,2.653,0.722c12.71,2.826,16.669,5.737,17.388,6.345c0.777-0.865,1.898-1.413,3.15-1.413
				c1.407,0.002,2.673,0.708,3.443,1.801c0.729-0.575,1.731-1.067,3.031-1.065c0.588,0,1.2,0.108,1.817,0.319
				c1.435,0.492,2.174,1.447,2.558,2.311c0.48-0.218,1.072-0.378,1.769-0.376c0.685,0,1.396,0.156,2.113,0.466
				c2.345,1.006,2.709,3.308,2.497,5.043c0.167-0.019,0.335-0.027,0.505-0.027c2.778,0.002,5.038,2.261,5.038,5.041
				c0,0.86-0.22,1.669-0.604,2.379c0.757,0.424,2.685,1.387,4.376,1.172c1.353-0.17,1.865-0.632,2.049-0.892
				c0.126-0.179,0.259-0.388,0.136-0.537l-3.586-3.984c0,0-0.592-0.559-0.396-0.774c0.201-0.221,0.566,0.096,0.825,0.312
				c1.824,1.524,4.053,3.825,4.053,3.825c0.038,0.025,0.185,0.316,1.01,0.464c0.709,0.127,1.965,0.053,2.834-0.661
				c0.22-0.181,0.439-0.405,0.622-0.638c-0.015,0.011-0.025,0.027-0.039,0.032c0.917-1.173-0.103-2.361-0.103-2.361l-4.186-4.702
				c0,0-0.6-0.554-0.396-0.776c0.182-0.193,0.566,0.098,0.829,0.316c1.325,1.109,3.198,2.989,4.993,4.747
				c0.352,0.256,1.929,1.232,4.019-0.14c1.268-0.832,1.522-1.853,1.486-2.624c-0.089-1.021-0.884-1.747-0.884-1.747l-5.721-5.75
				c0,0-0.604-0.516-0.39-0.777c0.175-0.22,0.566,0.096,0.824,0.312c1.821,1.524,6.753,6.046,6.753,6.046
				c0.071,0.049,1.774,1.263,3.881-0.078c0.753-0.482,1.234-1.207,1.275-2.05C155.87,52.762,154.837,51.893,154.837,51.893z"/>
			<path fill="#FFFFFF" d="M127.097,59.183c-0.887-0.011-1.857,0.516-1.983,0.439c-0.071-0.047,0.054-0.402,0.137-0.608
				c0.085-0.205,1.254-3.719-1.595-4.939c-2.177-0.937-3.509,0.117-3.968,0.592c-0.119,0.125-0.174,0.115-0.188-0.044
				c-0.044-0.632-0.325-2.344-2.206-2.918c-2.688-0.823-4.416,1.053-4.854,1.729c-0.197-1.532-1.492-2.72-3.078-2.722
				c-1.723-0.001-3.121,1.395-3.122,3.117c0,1.723,1.396,3.12,3.119,3.12c0.838,0.002,1.596-0.333,2.157-0.87
				c0.018,0.016,0.024,0.046,0.015,0.106c-0.13,0.771-0.372,3.574,2.563,4.715c1.178,0.457,2.178,0.118,3.009-0.465
				c0.246-0.174,0.287-0.101,0.252,0.131c-0.105,0.721,0.028,2.265,2.192,3.142c1.646,0.669,2.621-0.015,3.259-0.605
				c0.278-0.254,0.354-0.213,0.368,0.179c0.078,2.086,1.813,3.742,3.916,3.744c2.17,0.002,3.928-1.75,3.928-3.918
				C131.021,60.941,129.265,59.207,127.097,59.183z"/>
		</g>
		<path fill="#003782" d="M155.392,50.393c-4.41-3.848-14.604-12.709-17.362-14.781c-1.578-1.187-2.654-1.813-3.598-2.094
			c-0.424-0.128-1.012-0.273-1.767-0.275c-0.702,0-1.457,0.127-2.243,0.378c-1.785,0.564-3.562,1.977-5.281,3.344l-0.089,0.07
			c-1.602,1.273-3.256,2.589-4.509,2.869c-0.547,0.124-1.108,0.187-1.67,0.187c-1.402-0.002-2.663-0.407-3.136-1.009
			c-0.078-0.1-0.027-0.26,0.155-0.493l0.024-0.03l3.879-4.182c3.038-3.039,5.909-5.907,12.516-6.06
			c0.109-0.003,0.222-0.005,0.33-0.005c4.113,0.003,8.224,1.844,8.685,2.057c3.855,1.881,7.836,2.836,11.837,2.84
			c4.169,0,8.471-1.031,12.995-3.113c-0.506-0.426-1.031-0.839-1.571-1.244c-3.976,1.722-7.76,2.592-11.413,2.591
			c-3.731-0.003-7.458-0.899-11.077-2.665c-0.19-0.091-4.729-2.232-9.452-2.234c-0.125,0-0.249,0.002-0.374,0.004
			c-5.549,0.131-8.675,2.101-10.777,3.827c-2.044,0.05-3.808,0.542-5.378,0.981c-1.4,0.389-2.608,0.727-3.789,0.726
			c-0.485,0-1.36-0.044-1.438-0.048c-1.357-0.041-8.191-1.717-13.627-3.775c-0.556,0.393-1.089,0.798-1.609,1.212
			c5.679,2.328,12.59,4.129,14.771,4.27c0.606,0.04,1.254,0.108,1.899,0.11c1.444,0,2.884-0.405,4.277-0.795
			c0.823-0.23,1.731-0.482,2.688-0.665c-0.255,0.25-0.51,0.504-0.766,0.76l-3.941,4.264c-0.31,0.313-0.984,1.148-0.54,2.178
			c0.177,0.415,0.535,0.813,1.036,1.15c0.94,0.632,2.621,1.06,4.185,1.062c0.591,0.001,1.153-0.059,1.668-0.174
			c1.654-0.371,3.387-1.751,5.223-3.211c1.463-1.162,3.542-2.638,5.132-3.071c0.445-0.121,0.991-0.196,1.431-0.196
			c0.132,0.001,0.255,0.005,0.37,0.022c1.051,0.133,2.067,0.49,3.883,1.853c3.235,2.431,17.554,14.956,17.693,15.08
			c0.01,0.008,0.923,0.796,0.859,2.105c-0.034,0.729-0.438,1.378-1.144,1.828c-0.61,0.388-1.242,0.585-1.88,0.585
			c-0.956-0.002-1.615-0.45-1.658-0.48c-0.053-0.043-4.959-4.542-6.764-6.053c-0.287-0.238-0.566-0.453-0.849-0.453
			c-0.151,0-0.284,0.064-0.375,0.177c-0.284,0.351,0.034,0.835,0.408,1.154l5.73,5.76c0.009,0.006,0.715,0.669,0.792,1.552
			c0.045,0.955-0.411,1.753-1.361,2.375c-0.676,0.446-1.36,0.671-2.031,0.671c-0.88,0-1.497-0.4-1.634-0.496l-0.822-0.81
			c-1.502-1.479-3.053-3.006-4.188-3.955c-0.276-0.23-0.572-0.442-0.854-0.442c-0.14,0-0.264,0.052-0.361,0.153
			c-0.129,0.144-0.219,0.402,0.104,0.831c0.133,0.177,0.288,0.323,0.288,0.323l4.182,4.697c0.036,0.042,0.862,1.024,0.095,2.004
			l-0.146,0.188c-0.126,0.138-0.262,0.266-0.39,0.375c-0.714,0.585-1.666,0.647-2.044,0.647c-0.201,0-0.396-0.017-0.565-0.048
			c-0.412-0.074-0.689-0.189-0.824-0.347l-0.051-0.053c-0.229-0.236-2.336-2.388-4.08-3.843c-0.229-0.193-0.516-0.436-0.813-0.436
			c-0.146,0-0.276,0.058-0.378,0.168c-0.345,0.378,0.174,0.944,0.393,1.15l3.567,3.933c-0.004,0.035-0.05,0.116-0.136,0.24
			c-0.127,0.176-0.56,0.609-1.854,0.771c-0.156,0.021-0.316,0.028-0.474,0.028c-1.334,0-2.758-0.647-3.491-1.036
			c0.334-0.706,0.508-1.481,0.508-2.26c0.001-2.936-2.383-5.324-5.317-5.326c-0.063,0-0.13,0.002-0.193,0.004
			c0.096-1.34-0.093-3.878-2.698-4.995c-0.75-0.324-1.497-0.489-2.224-0.489c-0.569,0-1.117,0.097-1.632,0.294
			c-0.539-1.049-1.436-1.813-2.604-2.211c-0.646-0.224-1.288-0.337-1.909-0.337c-1.084,0-2.083,0.32-2.973,0.953
			c-0.854-1.061-2.144-1.689-3.5-1.689c-1.188,0-2.331,0.475-3.179,1.314c-1.11-0.848-5.513-3.645-17.301-6.321
			c-0.57-0.131-1.881-0.505-2.683-0.74c-0.133,0.638-0.235,1.283-0.301,1.934c0,0,2.173,0.521,2.601,0.617
			c12.04,2.674,16.02,5.455,16.691,5.981c-0.228,0.547-0.347,1.137-0.347,1.731c-0.002,2.487,2.022,4.514,4.511,4.516
			c0.279,0,0.556-0.025,0.828-0.075c0.375,1.83,1.572,3.218,3.403,3.93c0.534,0.206,1.076,0.312,1.607,0.312
			c0.344,0,0.689-0.042,1.027-0.129c0.339,0.858,1.098,1.929,2.8,2.62c0.597,0.24,1.191,0.365,1.772,0.365
			c0.474,0,0.936-0.083,1.377-0.245c0.815,1.985,2.755,3.3,4.918,3.3c1.433,0.002,2.809-0.582,3.812-1.615
			c0.859,0.477,2.673,1.341,4.505,1.343c0.236,0,0.46-0.016,0.682-0.043c1.818-0.23,2.666-0.941,3.055-1.495
			c0.07-0.097,0.134-0.199,0.188-0.306c0.43,0.125,0.902,0.225,1.444,0.226c0.992,0,1.946-0.339,2.91-1.04
			c0.946-0.683,1.62-1.663,1.718-2.498c0.001-0.012,0.002-0.024,0.004-0.036c0.32,0.066,0.647,0.099,0.975,0.099
			c1.022,0,2.029-0.319,2.99-0.948c1.854-1.216,2.177-2.805,2.146-3.844c0.324,0.068,0.655,0.103,0.985,0.103
			c0.961,0,1.904-0.29,2.802-0.862c1.149-0.734,1.843-1.86,1.947-3.169c0.071-0.89-0.148-1.788-0.618-2.56
			c3.107-1.338,10.209-3.929,18.574-5.814c-0.051-0.649-0.145-1.29-0.261-1.927C164.833,46.284,157.282,49.551,155.392,50.393z
			 M127.097,66.749c-1.966-0.002-3.563-1.529-3.636-3.475c-0.005-0.166-0.021-0.61-0.397-0.61c-0.153,0-0.288,0.093-0.442,0.232
			c-0.432,0.4-0.982,0.809-1.786,0.809c-0.364,0-0.76-0.085-1.178-0.256c-2.074-0.841-2.104-2.267-2.019-2.84
			c0.021-0.152,0.03-0.312-0.075-0.435l-0.127-0.115h-0.131c-0.104,0-0.213,0.043-0.359,0.147c-0.601,0.421-1.178,0.625-1.762,0.625
			c-0.323,0-0.653-0.064-0.984-0.192c-2.731-1.063-2.517-3.642-2.383-4.418c0.02-0.158-0.02-0.279-0.119-0.36l-0.192-0.16
			l-0.181,0.172c-0.533,0.513-1.229,0.794-1.962,0.794c-1.564-0.002-2.839-1.273-2.837-2.838c0.001-1.565,1.275-2.836,2.841-2.834
			c1.414,0,2.619,1.063,2.798,2.476l0.099,0.762l0.419-0.645c0.047-0.075,1.192-1.809,3.302-1.807c0.399,0,0.813,0.064,1.231,0.193
			c1.68,0.514,1.964,2.037,2.008,2.671c0.03,0.37,0.293,0.388,0.345,0.388c0.146,0,0.252-0.092,0.329-0.171
			c0.315-0.331,1.007-0.882,2.087-0.882c0.495,0.002,1.021,0.119,1.564,0.354c2.672,1.146,1.461,4.539,1.445,4.574
			c-0.229,0.563-0.238,0.811-0.023,0.955l0.105,0.051h0.078c0.121,0,0.271-0.053,0.518-0.137c0.364-0.125,0.911-0.314,1.425-0.313
			h0.001c2.011,0.021,3.646,1.658,3.646,3.646C130.742,65.117,129.107,66.749,127.097,66.749z"/>
	</g>
	<g>
		<path fill="#003782" d="M201.194,99.522c-1.677-2.104-4.224-3.153-7.643-3.153c-3.415,0-5.963,1.05-7.641,3.153
			c-1.68,2.1-2.519,4.584-2.519,7.45c0,2.917,0.839,5.41,2.519,7.483c1.678,2.069,4.226,3.105,7.641,3.105
			c3.419,0,5.966-1.036,7.643-3.105c1.68-2.073,2.518-4.566,2.518-7.483C203.711,104.106,202.874,101.622,201.194,99.522z
			 M197.037,111.582c-0.813,1.08-1.979,1.62-3.502,1.62c-1.52,0-2.689-0.54-3.511-1.62s-1.23-2.618-1.23-4.609
			c0-1.989,0.409-3.523,1.23-4.598s1.991-1.611,3.511-1.611c1.523,0,2.688,0.537,3.502,1.611s1.223,2.608,1.223,4.598
			C198.259,108.964,197.85,110.502,197.037,111.582z"/>
		<path fill="#003782" d="M158.308,97.764c-1.701-0.863-3.65-1.298-5.84-1.298c-3.371,0-5.747,0.879-7.133,2.634
			c-0.869,1.124-1.359,2.556-1.473,4.301h5.034c0.123-0.77,0.371-1.38,0.743-1.83c0.519-0.609,1.4-0.914,2.648-0.914
			c1.116,0,1.959,0.153,2.535,0.468c0.573,0.31,0.862,0.875,0.862,1.69c0,0.672-0.374,1.164-1.124,1.483
			c-0.419,0.183-1.112,0.334-2.086,0.457l-1.784,0.218c-2.026,0.258-3.566,0.686-4.609,1.284c-1.905,1.098-2.857,2.87-2.857,5.323
			c0,1.888,0.591,3.351,1.778,4.38c1.18,1.031,2.684,1.465,4.499,1.549c11.384,0.508,11.254-5.999,11.358-7.352v-7.489
			C160.861,100.267,160.008,98.632,158.308,97.764z M155.665,109.127c-0.034,1.744-0.535,2.945-1.495,3.604
			c-0.959,0.658-2.008,0.989-3.146,0.989c-0.721,0-1.33-0.201-1.832-0.595c-0.501-0.397-0.752-1.041-0.752-1.933
			c0-0.999,0.409-1.736,1.231-2.213c0.487-0.279,1.286-0.52,2.397-0.71l1.188-0.222c0.592-0.111,1.06-0.231,1.397-0.359
			c0.344-0.126,0.678-0.291,1.011-0.501V109.127z"/>
		<path fill="#003782" d="M132.353,100.927c1.301,0,2.257,0.401,2.874,1.204c0.422,0.595,0.688,1.266,0.79,2.009h5.616
			c-0.31-2.834-1.301-4.811-2.975-5.931c-1.678-1.115-3.827-1.678-6.457-1.678c-3.094,0-5.521,0.95-7.276,2.845
			c-1.759,1.899-2.638,4.553-2.638,7.962c0,3.021,0.795,5.481,2.387,7.378c1.591,1.897,4.073,2.846,7.447,2.846
			c3.376,0,5.926-1.137,7.644-3.41c1.078-1.41,1.681-2.906,1.808-4.487h-5.595c-0.115,1.045-0.441,1.897-0.983,2.555
			c-0.539,0.653-1.449,0.983-2.736,0.983c-1.812,0-3.047-0.826-3.7-2.482c-0.36-0.883-0.542-2.054-0.542-3.509
			c0-1.526,0.182-2.751,0.542-3.676C129.238,101.798,130.505,100.927,132.353,100.927z"/>
		<path fill="#003782" d="M120.782,96.531c-11.533,0-10.852,10.211-10.852,10.211v10.372h5.234v-9.729
			c0-1.593,0.202-2.774,0.601-3.542c0.719-1.36,2.12-2.042,4.215-2.042c0.157,0,0.365,0.008,0.62,0.021
			c0.256,0.012,0.545,0.034,0.877,0.073V96.57c-0.232-0.016-0.383-0.022-0.446-0.029C120.961,96.535,120.879,96.531,120.782,96.531z
			"/>
		<path fill="#003782" d="M101.556,111.694c-0.22,0.314-0.457,0.583-0.716,0.792c-0.74,0.608-1.745,0.794-2.928,0.794
			c-1.118,0-1.992-0.17-2.785-0.669c-1.306-0.802-2.041-2.161-2.119-4.154h14.481c0.021-1.716-0.034-3.029-0.172-3.945
			c-0.242-1.557-0.771-2.931-1.584-4.11c-0.903-1.34-2.052-2.32-3.436-2.943c-1.388-0.617-2.944-0.929-4.674-0.929
			c-2.917,0-5.284,0.92-7.111,2.755c-1.825,1.841-2.741,4.48-2.741,7.923c0,3.677,1.013,6.329,3.036,7.96
			c2.021,1.63,4.357,2.447,7.002,2.447c3.206,0,5.701-0.967,7.481-2.902c0.96-1.017,1.561-2.024,1.815-3.018H101.556z
			 M94.521,101.95c0.735-0.756,1.77-1.134,3.104-1.134c1.228,0,2.255,0.354,3.085,1.071c0.826,0.713,1.289,1.763,1.384,3.139h-8.957
			C93.324,103.732,93.788,102.709,94.521,101.95z"/>
		<g>
			<path fill="#003782" d="M85.669,117.113h-4.78v-12.038c0-1.101-0.363-3.716-3.517-3.716c-2.103,0-3.624,1.517-3.624,3.716v12.038
				h-4.786v-12.038c0-1.101-0.326-3.716-3.478-3.716c-2.14,0-3.625,1.517-3.625,3.716v12.038h-4.784v-11.924
				c0-4.969,3.298-8.729,8.409-8.729c2.537,0,4.602,1.066,5.944,2.774c1.411-1.708,3.514-2.774,5.943-2.774
				c5.219,0,8.297,3.606,8.297,8.729V117.113z"/>
		</g>
		<path fill="#003782" d="M181.835,90.244c0,0-5.272-0.563-5.272,3.671l-0.004,5.607c-0.583-0.937-1.343-1.67-2.278-2.196
			c-0.936-0.529-2.004-0.795-3.212-0.795c-2.615,0-4.7,0.973-6.265,2.918c-1.564,1.947-2.342,4.752-2.342,8.144
			c0,2.942,0.793,5.356,2.379,7.234c1.588,1.877,4.7,2.7,7.464,2.7c9.638,0,9.526-8.264,9.526-8.264L181.835,90.244z
			 M175.557,111.625c-0.764,1.094-1.887,1.642-3.354,1.642c-1.474,0-2.57-0.552-3.293-1.651c-0.723-1.101-1.084-2.704-1.084-4.54
			c0-1.704,0.353-3.129,1.064-4.277c0.711-1.148,1.826-1.725,3.347-1.725c0.998,0,1.872,0.316,2.628,0.947
			c1.228,1.047,1.843,2.924,1.843,5.354C176.708,109.114,176.323,110.53,175.557,111.625z"/>
	</g>
	<g>
		<path fill="#009BDB" d="M95.166,148.756c0,0.71-0.257,1.318-0.774,1.825c-0.511,0.507-1.128,0.76-1.849,0.76h-2.619v-18.218
			c0-3.542,1.195-5.761,3.159-7.261c1.301-0.991,3.234-1.938,6.86-1.938c2.447,0,5.313,0.951,6.861,2.839
			c1.738,2.123,2.461,4.488,2.461,7.579c0,3.196-0.77,5.774-2.309,7.757c-1.542,1.929-3.521,2.889-5.937,2.889
			c-1.282,0-2.413-0.228-3.389-0.682c-1.031-0.509-1.85-1.295-2.466-2.36V148.756z M103.951,134.571
			c0-1.978-0.384-3.498-1.158-4.563c-0.771-1.061-1.874-1.598-3.313-1.598c-1.387,0-2.466,0.537-3.241,1.598
			c-0.716,0.965-1.073,2.488-1.073,4.563c0,1.931,0.384,3.37,1.155,4.335c0.769,1.064,1.875,1.598,3.313,1.598
			c1.335,0,2.389-0.533,3.159-1.598C103.567,137.841,103.951,136.401,103.951,134.571"/>
		<path fill="#009BDB" d="M144.002,143.31v-1.288c-0.906,1.421-2.133,2.301-3.671,2.659c-1.54,0.351-3.067,0.226-4.575-0.383
			c-1.519-0.606-2.818-1.734-3.904-3.379c-1.082-1.651-1.625-3.816-1.625-6.502c0-3.137,0.719-5.685,2.155-7.633
			c1.439-1.95,3.75-2.841,6.928-2.927c3.134-0.082,4.954,0.625,6.737,1.976c1.949,1.481,3.102,3.752,3.102,7.295v10.718
			c0.008,3.409-2.369,9.73-9.839,9.193c-4.627-0.335-7.195-2.232-8.628-6.535h5.524c0.403,0.708,1.021,1.253,1.858,1.63
			c0.828,0.384,1.664,0.482,2.491,0.306c0.833-0.177,1.592-0.672,2.276-1.481C143.511,146.148,143.901,144.932,144.002,143.31
			 M135.374,134.574c0,3.493,1.009,5.43,3.029,5.813c2.015,0.374,3.506-0.094,4.465-1.409c0.454-0.553,0.78-1.431,0.982-2.617
			c0.202-1.19,0.217-2.369,0.039-3.533c-0.174-1.168-0.592-2.206-1.25-3.119c-0.652-0.909-1.612-1.368-2.876-1.368
			c-1.716,0-2.874,0.636-3.48,1.898C135.673,131.507,135.374,132.95,135.374,134.574"/>
		<path fill="#009BDB" d="M125.742,125.304c-1.704-0.862-3.655-1.301-5.849-1.301c-3.376,0-5.757,0.883-7.145,2.639
			c-0.869,1.126-1.36,2.56-1.474,4.308h5.044c0.124-0.771,0.37-1.382,0.743-1.832c0.52-0.611,1.404-0.916,2.652-0.916
			c1.119,0,1.963,0.154,2.539,0.468c0.573,0.311,0.863,0.876,0.863,1.694c0,0.673-0.375,1.167-1.128,1.485
			c-0.416,0.184-1.111,0.335-2.087,0.459l-1.788,0.217c-2.029,0.258-3.572,0.688-4.613,1.286c-1.911,1.1-2.863,2.877-2.863,5.331
			c0,1.893,0.591,3.356,1.779,4.39c1.183,1.032,2.689,1.466,4.507,1.551c11.4,0.509,11.271-6.009,11.376-7.365v-7.501
			C128.299,127.81,127.448,126.173,125.742,125.304 M123.093,136.688c-0.032,1.748-0.533,2.948-1.494,3.608
			s-2.012,0.991-3.151,0.991c-0.723,0-1.333-0.201-1.835-0.596c-0.504-0.397-0.754-1.044-0.754-1.936
			c0-0.999,0.41-1.739,1.232-2.217c0.49-0.28,1.288-0.52,2.402-0.712l1.189-0.22c0.596-0.113,1.063-0.232,1.399-0.362
			c0.345-0.124,0.679-0.291,1.011-0.502V136.688z"/>
		<path fill="#009BDB" d="M168.979,126.956c-1.681-2.107-4.233-3.158-7.656-3.158c-3.419,0-5.971,1.051-7.652,3.158
			c-1.683,2.104-2.523,4.592-2.523,7.463c0,2.923,0.841,5.416,2.523,7.495c1.682,2.07,4.233,3.112,7.652,3.112
			c3.423,0,5.976-1.042,7.656-3.112c1.681-2.079,2.521-4.572,2.521-7.495C171.5,131.548,170.66,129.06,168.979,126.956
			 M164.814,139.033c-0.814,1.084-1.983,1.625-3.507,1.625c-1.521,0-2.696-0.541-3.516-1.625c-0.824-1.079-1.235-2.62-1.235-4.614
			c0-1.992,0.411-3.528,1.235-4.604c0.819-1.077,1.994-1.613,3.516-1.613c1.523,0,2.692,0.536,3.507,1.613
			c0.816,1.076,1.224,2.612,1.224,4.604C166.038,136.413,165.63,137.954,164.814,139.033"/>
	</g>
</g>
</svg>
