<?xml version="1.0" encoding="utf-8"?>
<!-- Generator: Adobe Illustrator 17.0.0, SVG Export Plug-In . SVG Version: 6.00 Build 0)  -->
<!DOCTYPE svg PUBLIC "-//W3C//DTD SVG 1.1//EN" "http://www.w3.org/Graphics/SVG/1.1/DTD/svg11.dtd">
<svg version="1.1" id="Objeto_Inteligente_de_Vetor_xA0_Imagem_1_"
	 xmlns="http://www.w3.org/2000/svg" xmlns:xlink="http://www.w3.org/1999/xlink" x="0px" y="0px" width="30px" height="30px"
	 viewBox="0 0 30 30" enable-background="new 0 0 30 30" xml:space="preserve">
<path fill="#009877" d="M28.849,3.296c-0.831-1.688-2.036-2.906-3.983-3.11c0,0,0,0,0,0c0,0,0,0,0,0
	c-0.504,0-1.009,0.001-1.514,0.001c-2.888,0.397-5.068,2.088-7.066,4.092c-1.318,1.321-1.307,1.337-2.571-0.013
	C11.825,2.248,9.62,0.754,6.968,0C6.267,0,5.566,0,4.865,0C2.44,0.733,1.181,2.561,0.513,4.918C0.25,5.847,0.074,6.8,0.029,7.772
	c-0.293,6.232,1.663,11.7,5.376,16.563c0.8,1.047,1.718,1.983,2.715,2.842c4.169,3.591,8.486,3.797,12.807,0.379
	c5.289-4.184,8.146-9.838,8.93-16.58C30.161,8.364,30.048,5.731,28.849,3.296z M10.042,26.524c-5.4-4.7-8.194-10.552-8.304-17.714
	C1.714,7.258,1.986,5.732,2.607,4.303c0.978-2.252,2.593-2.991,4.87-2.206c2.513,0.866,4.371,2.639,6.041,4.669
	c0.351,0.427,0.127,0.707-0.087,1.039c-1.906,2.964-3.202,6.175-3.8,9.684c-0.477,2.796-0.508,5.553,0.417,8.267
	C10.119,25.961,10.188,26.162,10.042,26.524z M17.533,25.911c-0.535,1.077-1.198,2.08-2.547,2.101
	c-1.447,0.022-2.3-0.906-2.895-2.123c-0.992-2.029-1.077-4.226-0.887-6.409c0.309-3.544,1.453-6.826,3.255-9.874
	c0.372-0.629,0.544-0.676,0.944-0.018c1.836,3.021,3.137,7.59,3.142,11.218C18.533,22.575,18.328,24.311,17.533,25.911z
	 M27.588,13.844c-1.127,4.525-3.328,8.408-6.768,11.515c-0.262,0.237-0.543,0.452-0.829,0.657c-0.073,0.053-0.199,0.029-0.4,0.052
	c1.823-6.664,0.207-12.596-3.107-18.216c-0.227-0.384-0.414-0.688-0.029-1.129c1.628-1.862,3.398-3.523,5.732-4.407
	c2.698-1.021,4.489-0.162,5.422,2.627C28.598,7.905,28.324,10.889,27.588,13.844z"/>
</svg>
